Tidyverse Sample Exam v2.0 Solutions
…
Cleaning and Counting

Read the file measurements.csv to create a tibble called measurements. (The strings "rad", "sal", and "temp" in the quantity column stand for radiation, salinity, and temperature respectively.)

(measurements <- read_csv(here::here("measurements.csv")))

## # A tibble: 21 x 4
##    visit_id visitor quantity reading
##       <dbl> <chr>   <chr>      <dbl>
##  1      619 dyer    rad         9.82
##  2      619 dyer    sal         0.13
##  3      622 dyer    rad         7.8 
##  4      622 dyer    sal         0.09
##  5      734 pb      rad         8.41
##  6      734 lake    sal         0.05
##  7      734 pb      temp      -21.5 
##  8      735 pb      rad         7.22
##  9      735 <NA>    sal         0.06
## 10      735 <NA>    temp      -26   
## #  with 11 more rows
…
Plotting

The code below is supposed to read the file home-range-database.csv to create a tibble called hra_raw, but contains a bug. Describe and fix the problem. (There are several ways to fix it: please use whichever you prefer.)

hra_raw <- read_csv(here::here("data", "home-range-database.csv"))

Note: The file home-range-database.csv is currently saved in the root directory of the project, not in a subdirectory called data, as the code above would suggest. You could either create the data folder and move the data file there, or you could update the code that imports the data (as I demonstrate below).

(hra_raw <- read_csv(here::here("home-range-database.csv")))

## # A tibble: 566 x 24
##    taxon common.name class order family genus species primarymethod N    
##    <chr> <chr>       <chr> <chr> <chr>  <chr> <chr>   <chr>         <chr>
##  1 lake american e acti angu angui angu rostra telemetry     16   
##  2 rive blacktail  acti cypr catos moxo poecil mark-recaptu <NA> 
##  3 rive central st acti cypr cypri camp anomal mark-recaptu 20   
##  4 rive rosyside d acti cypr cypri clin fundul mark-recaptu 26   
##  5 rive longnose d acti cypr cypri rhin catara mark-recaptu 17   
##  6 rive muskellunge acti esoc esoci esox  masqui telemetry     5    
##  7 mari pollack     acti gadi gadid poll pollac telemetry     2    
##  8 mari saithe      acti gadi gadid poll virens  telemetry     2    
##  9 mari lined surg acti perc acant acan lineat direct obser <NA> 
## 10 mari orangespin acti perc acant naso  litura telemetry     8    
## #  with 556 more rows, and 15 more variables: mean.mass.g <dbl>,
## #   log10.mass <dbl>, alternative.mass.reference <chr>, mean.hra.m2 <dbl>,
## #   log10.hra <dbl>, hra.reference <chr>, realm <chr>, thermoregulation <chr>,
## #   locomotion <chr>, trophic.guild <chr>, dimension <chr>, preymass <dbl>,
## #   log10.preymass <dbl>, PPMR <dbl>, prey.size.reference <chr>
…
mammalia

reptilia

aves

actinopterygii

(hra <- hra_raw %>% 
  mutate(class_fct = factor(class, levels = c("mammalia", 
                                              "reptilia", 
                                              "aves", 
                                              "actinopterygii"))))

## # A tibble: 566 x 25
##    taxon common.name class order family genus species primarymethod N    
##    <chr> <chr>       <chr> <chr> <chr>  <chr> <chr>   <chr>         <chr>
##  1 lake american e acti angu angui angu rostra telemetry     16   
##  2 rive blacktail  acti cypr catos moxo poecil mark-recaptu <NA> 
##  3 rive central st acti cypr cypri camp anomal mark-recaptu 20   
##  4 rive rosyside d acti cypr cypri clin fundul mark-recaptu 26   
##  5 rive longnose d acti cypr cypri rhin catara mark-recaptu 17   
##  6 rive muskellunge acti esoc esoci esox  masqui telemetry     5    
##  7 mari pollack     acti gadi gadid poll pollac telemetry     2    
##  8 mari saithe      acti gadi gadid poll virens  telemetry     2    
##  9 mari lined surg acti perc acant acan lineat direct obser <NA> 
## 10 mari orangespin acti perc acant naso  litura telemetry     8    
## #  with 556 more rows, and 16 more variables: mean.mass.g <dbl>,
## #   log10.mass <dbl>, alternative.mass.reference <chr>, mean.hra.m2 <dbl>,
## #   log10.hra <dbl>, hra.reference <chr>, realm <chr>, thermoregulation <chr>,
## #   locomotion <chr>, trophic.guild <chr>, dimension <chr>, preymass <dbl>,
## #   log10.preymass <dbl>, PPMR <dbl>, prey.size.reference <chr>,
## #   class_fct <fct>
…
